References/Matrix Vector Multiplication/wave.vcd
$date
     Jan 31, 2025       17:14:35
$end

$version
 SystemC 2.3.4-Accellera --- Mar  6 2023 09:32:15
$end

$timescale
     1 ps
$end

$scope module SystemC $end
$var wire    1  aaaaa  clk       $end
$var wire    1  aaaab  rst       $end
$var wire    1  aaaac  done       $end
$var wire    1  aaaad  valid       $end
$var wire    1  aaaae  write_reg       $end
$var wire    8  aaaaf  in_a0 [7:0]  $end
$var wire    8  aaaag  in_c0 [7:0]  $end
$var wire    8  aaaah  out_c0 [7:0]  $end
$var wire    8  aaaai  in_a1 [7:0]  $end
$var wire    8  aaaaj  in_c1 [7:0]  $end
$var wire    8  aaaak  out_c1 [7:0]  $end
$var wire    8  aaaal  in_a2 [7:0]  $end
$var wire    8  aaaam  in_c2 [7:0]  $end
$var wire    8  aaaan  out_c2 [7:0]  $end
$var wire    8  aaaao  in_a3 [7:0]  $end
$var wire    8  aaaap  in_c3 [7:0]  $end
$var wire    8  aaaaq  out_c3 [7:0]  $end
$var wire    8  aaaar  state0 [7:0]  $end
$var wire    8  aaaas  state1 [7:0]  $end
$var wire    8  aaaat  state2 [7:0]  $end
$var wire    8  aaaau  state3 [7:0]  $end
$upscope $end
$enddefinitions  $end

$comment
All initial values are dumped below at time 0 sec = 0 timescale units.
$end

$dumpvars
1aaaaa
1aaaab
0aaaac
0aaaad
0aaaae
b0 aaaaf
b0 aaaag
b0 aaaah
b0 aaaai
b0 aaaaj
b0 aaaak
b0 aaaal
b0 aaaam
b0 aaaan
b0 aaaao
b0 aaaap
b0 aaaaq
b0 aaaar
b0 aaaas
b0 aaaat
b0 aaaau
$end

#5000
0aaaaa

#10000
1aaaaa
0aaaab

#15000
0aaaaa

#20000
1aaaaa
1aaaad

#25000
0aaaaa

#30000
1aaaaa

#35000
0aaaaa

#40000
1aaaaa

#45000
0aaaaa

#50000
1aaaaa

#55000
0aaaaa

#60000
1aaaaa

#65000
0aaaaa

#70000
1aaaaa

#75000
0aaaaa

#80000
1aaaaa

#85000
0aaaaa

#90000
1aaaaa

#95000
0aaaaa

#100000
1aaaaa

#105000
0aaaaa

#110000
1aaaaa

#115000
0aaaaa

#120000
1aaaaa

#125000
0aaaaa

#130000
1aaaaa

#135000
0aaaaa

#140000
1aaaaa

#145000
0aaaaa

#150000
1aaaaa

#155000
0aaaaa

#160000
1aaaaa

#165000
0aaaaa

#170000
1aaaaa
1aaaae
b1 aaaaf
b10 aaaai
b11 aaaal
b100 aaaao

#175000
0aaaaa

#180000
1aaaaa
b1 aaaar
b10 aaaas
b11 aaaat
b100 aaaau

#185000
0aaaaa

#190000
1aaaaa

#195000
0aaaaa

#200000
1aaaaa

#205000
0aaaaa

#210000
1aaaaa

#215000
0aaaaa

#220000
1aaaaa

#225000
0aaaaa

#230000
1aaaaa

#235000
0aaaaa

#240000
1aaaaa

#245000
0aaaaa

#250000
1aaaaa

#255000
0aaaaa

#260000
1aaaaa

#265000
0aaaaa

#270000
1aaaaa

#275000
0aaaaa

#280000
1aaaaa

#285000
0aaaaa

#290000
1aaaaa

#295000
0aaaaa

#300000
1aaaaa

#305000
0aaaaa

#310000
1aaaaa

#315000
0aaaaa

#320000
1aaaaa
0aaaae
b0 aaaai
b0 aaaal
b0 aaaao

#325000
0aaaaa

#330000
1aaaaa

#335000
0aaaaa

#340000
1aaaaa

#345000
0aaaaa

#350000
1aaaaa

#355000
0aaaaa

#360000
1aaaaa

#365000
0aaaaa

#370000
1aaaaa

#375000
0aaaaa

#380000
1aaaaa

#385000
0aaaaa

#390000
1aaaaa
b10000000 aaaah

#395000
0aaaaa

#400000
1aaaaa
b1000000 aaaah

#405000
0aaaaa

#410000
1aaaaa
b100000 aaaah

#415000
0aaaaa

#420000
1aaaaa
b10000 aaaah

#425000
0aaaaa

#430000
1aaaaa
b1000 aaaah

#435000
0aaaaa

#440000
1aaaaa
b100 aaaah

#445000
0aaaaa

#450000
1aaaaa
b10 aaaah

#455000
0aaaaa

#460000
1aaaaa
b1 aaaah

#465000
0aaaaa

#470000
1aaaaa
b10 aaaaf
b10 aaaai
b1 aaaaj

#475000
0aaaaa

#480000
1aaaaa

#485000
0aaaaa

#490000
1aaaaa
b1 aaaak

#495000
0aaaaa

#500000
1aaaaa

#505000
0aaaaa

#510000
1aaaaa
b0 aaaah

#515000
0aaaaa

#520000
1aaaaa
b1 aaaah

#525000
0aaaaa

#530000
1aaaaa
b0 aaaah

#535000
0aaaaa

#540000
1aaaaa

#545000
0aaaaa

#550000
1aaaaa
b10000000 aaaah

#555000
0aaaaa

#560000
1aaaaa
b1000000 aaaah
b10000001 aaaak

#565000
0aaaaa

#570000
1aaaaa
b100000 aaaah
b1000001 aaaak

#575000
0aaaaa

#580000
1aaaaa
b10000 aaaah
b100001 aaaak

#585000
0aaaaa

#590000
1aaaaa
b1000 aaaah
b10001 aaaak

#595000
0aaaaa

#600000
1aaaaa
b100 aaaah
b1001 aaaak

#605000
0aaaaa

#610000
1aaaaa
b10 aaaah
b101 aaaak

#615000
0aaaaa

#620000
1aaaaa
b11 aaaaf
b11 aaaai
b10 aaaaj
b11 aaaal
b101 aaaam

#625000
0aaaaa

#630000
1aaaaa

#635000
0aaaaa

#640000
1aaaaa
b110 aaaak
b101 aaaan

#645000
0aaaaa

#650000
1aaaaa

#655000
0aaaaa

#660000
1aaaaa
b0 aaaah
b10 aaaak

#665000
0aaaaa

#670000
1aaaaa
b1 aaaah
b11 aaaak

#675000
0aaaaa

#680000
1aaaaa
b0 aaaah
b10 aaaak

#685000
0aaaaa

#690000
1aaaaa
b10000000 aaaah
b10000101 aaaan

#695000
0aaaaa

#700000
1aaaaa
b11000000 aaaah
b10000010 aaaak
b1000101 aaaan

#705000
0aaaaa

#710000
1aaaaa
b1100000 aaaah
b11000010 aaaak
b100101 aaaan

#715000
0aaaaa

#720000
1aaaaa
b110000 aaaah
b1100010 aaaak
b10010101 aaaan

#725000
0aaaaa

#730000
1aaaaa
b11000 aaaah
b110010 aaaak
b1001101 aaaan

#735000
0aaaaa

#740000
1aaaaa
b1100 aaaah
b11010 aaaak
b101001 aaaan

#745000
0aaaaa

#750000
1aaaaa
b110 aaaah
b1110 aaaak
b10111 aaaan

#755000
0aaaaa

#760000
1aaaaa
b11 aaaah
b1000 aaaak
b1110 aaaan

#765000
0aaaaa

#770000
1aaaaa
b0 aaaaf
b100 aaaai
b11 aaaaj
b100 aaaal
b1000 aaaam
b100 aaaao
b1110 aaaap

#775000
0aaaaa

#780000
1aaaaa

#785000
0aaaaa

#790000
1aaaaa
b1001 aaaak
b10001 aaaan
b1110 aaaaq

#795000
0aaaaa

#800000
1aaaaa

#805000
0aaaaa

#810000
1aaaaa
b0 aaaah
b11 aaaak
b1000 aaaan

#815000
0aaaaa

#820000
1aaaaa
b1 aaaah
b100 aaaak
b1001 aaaan

#825000
0aaaaa

#830000
1aaaaa
b0 aaaah
b11 aaaak
b1000 aaaan

#835000
0aaaaa

#840000
1aaaaa

#845000
0aaaaa

#850000
1aaaaa

#855000
0aaaaa

#860000
1aaaaa
b10001000 aaaan

#865000
0aaaaa

#870000
1aaaaa
b10000011 aaaak
b11001000 aaaan

#875000
0aaaaa

#880000
1aaaaa
b1000011 aaaak
b1101000 aaaan
b10001110 aaaaq

#885000
0aaaaa

#890000
1aaaaa
b100011 aaaak
b111000 aaaan
b1001110 aaaaq

#895000
0aaaaa

#900000
1aaaaa
b10011 aaaak
b100000 aaaan
b101110 aaaaq

#905000
0aaaaa

#910000
1aaaaa
b1011 aaaak
b10100 aaaan
b11110 aaaaq

#915000
0aaaaa

#920000
1aaaaa
b0 aaaai
b0 aaaaj
b101 aaaal
b1011 aaaam
b101 aaaao
b10100 aaaap

#925000
0aaaaa

#930000
1aaaaa

#935000
0aaaaa

#940000
1aaaaa
b1000 aaaak
b10111 aaaan
b100100 aaaaq

#945000
0aaaaa

#950000
1aaaaa

#955000
0aaaaa

#960000
1aaaaa
b0 aaaak
b1011 aaaan
b10100 aaaaq

#965000
0aaaaa

#970000
1aaaaa
b1 aaaak
b1100 aaaan
b10101 aaaaq

#975000
0aaaaa

#980000
1aaaaa
b0 aaaak
b1011 aaaan
b10100 aaaaq

#985000
0aaaaa

#990000
1aaaaa
b10001011 aaaan

#995000
0aaaaa

#1000000
1aaaaa
b11001011 aaaan

#1005000
0aaaaa

#1010000
1aaaaa
b11101011 aaaan
b10010100 aaaaq

#1015000
0aaaaa

#1020000
1aaaaa
b11111011 aaaan
b1010100 aaaaq

#1025000
0aaaaa

#1030000
1aaaaa
b10000011 aaaan
b10110100 aaaaq

#1035000
0aaaaa

#1040000
1aaaaa
b1000111 aaaan
b1100100 aaaaq

#1045000
0aaaaa

#1050000
1aaaaa
b101001 aaaan
b111100 aaaaq

#1055000
0aaaaa

#1060000
1aaaaa
b11010 aaaan
b101000 aaaaq

#1065000
0aaaaa

#1070000
1aaaaa
b0 aaaal
b0 aaaam
b110 aaaao
b11010 aaaap

#1075000
0aaaaa

#1080000
1aaaaa

#1085000
0aaaaa

#1090000
1aaaaa
b1111 aaaan
b101110 aaaaq

#1095000
0aaaaa

#1100000
1aaaaa

#1105000
0aaaaa

#1110000
1aaaaa
b0 aaaan
b11010 aaaaq

#1115000
0aaaaa

#1120000
1aaaaa
b1 aaaan
b11011 aaaaq

#1125000
0aaaaa

#1130000
1aaaaa
b0 aaaan
b11010 aaaaq

#1135000
0aaaaa

#1140000
1aaaaa

#1145000
0aaaaa

#1150000
1aaaaa

#1155000
0aaaaa

#1160000
1aaaaa

#1165000
0aaaaa

#1170000
1aaaaa
b10011010 aaaaq

#1175000
0aaaaa

#1180000
1aaaaa
b11011010 aaaaq

#1185000
0aaaaa

#1190000
1aaaaa
b1111010 aaaaq

#1195000
0aaaaa

#1200000
1aaaaa
b1001010 aaaaq

#1205000
0aaaaa

#1210000
1aaaaa
b110010 aaaaq

#1215000
0aaaaa

#1220000
1aaaaa
b0 aaaao
b0 aaaap

#1225000
0aaaaa

#1230000
1aaaaa

#1235000
0aaaaa

#1240000
1aaaaa
b11000 aaaaq

#1245000
0aaaaa

#1250000
1aaaaa

#1255000
0aaaaa

#1260000
1aaaaa
b0 aaaaq

#1265000
0aaaaa

#1270000
1aaaaa
b1 aaaaq

#1275000
0aaaaa

#1280000
1aaaaa
b0 aaaaq

#1285000
0aaaaa

#1290000
1aaaaa

#1295000
0aaaaa

#1300000
1aaaaa

#1305000
0aaaaa

#1310000
1aaaaa

#1315000
0aaaaa

#1320000
1aaaaa

#1325000
0aaaaa

#1330000
1aaaaa

#1335000
0aaaaa

#1340000
1aaaaa

#1345000
0aaaaa

#1350000
1aaaaa

#1355000
0aaaaa

#1360000
1aaaaa

#1365000
0aaaaa

#1370000
1aaaaa
1aaaac

