References/Matrix Vector Multiplication/wave.vcd
$date
     Sep 25, 2023       18:34:17
$end

$version
 SystemC 2.3.3-Accellera --- Jun  7 2023 10:06:57
$end

$timescale
     1 ps
$end

$scope module SystemC $end
$var wire    1  aaaaa  clk       $end
$var wire    1  aaaab  rst       $end
$var wire    1  aaaac  done       $end
$var wire    1  aaaad  valid       $end
$var wire    1  aaaae  write_reg       $end
$var wire    8  aaaaf  in_a0 [7:0]  $end
$var wire    8  aaaag  in_c0 [7:0]  $end
$var wire    8  aaaah  out_c0 [7:0]  $end
$var wire    8  aaaai  in_a1 [7:0]  $end
$var wire    8  aaaaj  in_c1 [7:0]  $end
$var wire    8  aaaak  out_c1 [7:0]  $end
$var wire    8  aaaal  in_a2 [7:0]  $end
$var wire    8  aaaam  in_c2 [7:0]  $end
$var wire    8  aaaan  out_c2 [7:0]  $end
$var wire    8  aaaao  in_a3 [7:0]  $end
$var wire    8  aaaap  in_c3 [7:0]  $end
$var wire    8  aaaaq  out_c3 [7:0]  $end
$var wire    8  aaaar  reg0 [7:0]  $end
$var wire    8  aaaas  reg1 [7:0]  $end
$var wire    8  aaaat  reg2 [7:0]  $end
$var wire    8  aaaau  reg3 [7:0]  $end
$upscope $end
$enddefinitions  $end

$comment
All initial values are dumped below at time 0 sec = 0 timescale units.
$end

$dumpvars
1aaaaa
1aaaab
0aaaac
0aaaad
0aaaae
b0 aaaaf
b0 aaaag
b0 aaaah
b0 aaaai
b0 aaaaj
b0 aaaak
b0 aaaal
b0 aaaam
b0 aaaan
b0 aaaao
b0 aaaap
b0 aaaaq
b0 aaaar
b0 aaaas
b0 aaaat
b0 aaaau
$end

#5000
0aaaaa

#10000
1aaaaa
0aaaab

#15000
0aaaaa

#20000
1aaaaa
1aaaad

#25000
0aaaaa

#30000
1aaaaa
1aaaae
b1 aaaaf
b10 aaaai
b11 aaaal
b100 aaaao
b1 aaaar
b10 aaaas
b11 aaaat
b100 aaaau

#35000
0aaaaa

#40000
1aaaaa
0aaaae
b1 aaaah
b0 aaaai
b0 aaaal
b0 aaaao

#45000
0aaaaa

#50000
1aaaaa
b10 aaaaf
b10 aaaah
b10 aaaai
b1 aaaaj
b101 aaaak

#55000
0aaaaa

#60000
1aaaaa
b11 aaaaf
b11 aaaah
b11 aaaai
b10 aaaaj
b1000 aaaak
b11 aaaal
b101 aaaam
b1110 aaaan

#65000
0aaaaa

#70000
1aaaaa
b0 aaaaf
b0 aaaah
b100 aaaai
b11 aaaaj
b1011 aaaak
b100 aaaal
b1000 aaaam
b10100 aaaan
b100 aaaao
b1110 aaaap
b11110 aaaaq

#75000
0aaaaa

#80000
1aaaaa
b0 aaaai
b0 aaaaj
b0 aaaak
b101 aaaal
b1011 aaaam
b11010 aaaan
b101 aaaao
b10100 aaaap
b101000 aaaaq

#85000
0aaaaa

#90000
1aaaaa
b0 aaaal
b0 aaaam
b0 aaaan
b110 aaaao
b11010 aaaap
b110010 aaaaq

#95000
0aaaaa

#100000
1aaaaa
1aaaac
b0 aaaao
b0 aaaap
b0 aaaaq

