References/Combined Operations/wave.vcd
$date
     Sep 25, 2023       19:07:54
$end

$version
 SystemC 2.3.3-Accellera --- Jun  7 2023 10:06:57
$end

$timescale
     1 ps
$end

$scope module SystemC $end
$var wire    1  aaaaa  clk       $end
$var wire    1  aaaab  rst       $end
$var wire    8  aaaac  in_a00 [7:0]  $end
$var wire    8  aaaad  out_a00 [7:0]  $end
$var wire    8  aaaae  in_c_u00 [7:0]  $end
$var wire    8  aaaaf  out_c_u00 [7:0]  $end
$var wire    8  aaaag  in_c_d00 [7:0]  $end
$var wire    8  aaaah  out_c_d00 [7:0]  $end
$var wire    1  aaaai  in_s00       $end
$var wire    1  aaaaj  out_s00       $end
$var wire    8  aaaak  in_a01 [7:0]  $end
$var wire    8  aaaal  out_a01 [7:0]  $end
$var wire    8  aaaam  in_c_u01 [7:0]  $end
$var wire    8  aaaan  out_c_u01 [7:0]  $end
$var wire    8  aaaao  in_c_d01 [7:0]  $end
$var wire    8  aaaap  out_c_d01 [7:0]  $end
$var wire    1  aaaaq  in_s01       $end
$var wire    1  aaaar  out_s01       $end
$var wire    8  aaaas  in_a02 [7:0]  $end
$var wire    8  aaaat  out_a02 [7:0]  $end
$var wire    8  aaaau  in_c_u02 [7:0]  $end
$var wire    8  aaaav  out_c_u02 [7:0]  $end
$var wire    8  aaaaw  in_c_d02 [7:0]  $end
$var wire    8  aaaax  out_c_d02 [7:0]  $end
$var wire    1  aaaay  in_s02       $end
$var wire    1  aaaaz  out_s02       $end
$var wire    8  aaaba  in_a10 [7:0]  $end
$var wire    8  aaabb  out_a10 [7:0]  $end
$var wire    8  aaabc  in_c_u10 [7:0]  $end
$var wire    8  aaabd  out_c_u10 [7:0]  $end
$var wire    8  aaabe  in_c_d10 [7:0]  $end
$var wire    8  aaabf  out_c_d10 [7:0]  $end
$var wire    1  aaabg  in_s10       $end
$var wire    1  aaabh  out_s10       $end
$var wire    8  aaabi  in_a11 [7:0]  $end
$var wire    8  aaabj  out_a11 [7:0]  $end
$var wire    8  aaabk  in_c_u11 [7:0]  $end
$var wire    8  aaabl  out_c_u11 [7:0]  $end
$var wire    8  aaabm  in_c_d11 [7:0]  $end
$var wire    8  aaabn  out_c_d11 [7:0]  $end
$var wire    1  aaabo  in_s11       $end
$var wire    1  aaabp  out_s11       $end
$var wire    8  aaabq  in_a12 [7:0]  $end
$var wire    8  aaabr  out_a12 [7:0]  $end
$var wire    8  aaabs  in_c_u12 [7:0]  $end
$var wire    8  aaabt  out_c_u12 [7:0]  $end
$var wire    8  aaabu  in_c_d12 [7:0]  $end
$var wire    8  aaabv  out_c_d12 [7:0]  $end
$var wire    1  aaabw  in_s12       $end
$var wire    1  aaabx  out_s12       $end
$var wire    8  aaaby  in_a20 [7:0]  $end
$var wire    8  aaabz  out_a20 [7:0]  $end
$var wire    8  aaaca  in_c_u20 [7:0]  $end
$var wire    8  aaacb  out_c_u20 [7:0]  $end
$var wire    8  aaacc  in_c_d20 [7:0]  $end
$var wire    8  aaacd  out_c_d20 [7:0]  $end
$var wire    1  aaace  in_s20       $end
$var wire    1  aaacf  out_s20       $end
$var wire    8  aaacg  in_a21 [7:0]  $end
$var wire    8  aaach  out_a21 [7:0]  $end
$var wire    8  aaaci  in_c_u21 [7:0]  $end
$var wire    8  aaacj  out_c_u21 [7:0]  $end
$var wire    8  aaack  in_c_d21 [7:0]  $end
$var wire    8  aaacl  out_c_d21 [7:0]  $end
$var wire    1  aaacm  in_s21       $end
$var wire    1  aaacn  out_s21       $end
$var wire    8  aaaco  in_a22 [7:0]  $end
$var wire    8  aaacp  out_a22 [7:0]  $end
$var wire    8  aaacq  in_c_u22 [7:0]  $end
$var wire    8  aaacr  out_c_u22 [7:0]  $end
$var wire    8  aaacs  in_c_d22 [7:0]  $end
$var wire    8  aaact  out_c_d22 [7:0]  $end
$var wire    1  aaacu  in_s22       $end
$var wire    1  aaacv  out_s22       $end
$var wire    8  aaacw  regu0 [7:0]  $end
$var wire    8  aaacx  regd0 [7:0]  $end
$var wire    8  aaacy  regu1 [7:0]  $end
$var wire    8  aaacz  regd1 [7:0]  $end
$var wire    8  aaada  regu2 [7:0]  $end
$var wire    8  aaadb  regd2 [7:0]  $end
$var wire    8  aaadc  regu3 [7:0]  $end
$var wire    8  aaadd  regd3 [7:0]  $end
$var wire    8  aaade  regu4 [7:0]  $end
$var wire    8  aaadf  regd4 [7:0]  $end
$var wire    8  aaadg  regu5 [7:0]  $end
$var wire    8  aaadh  regd5 [7:0]  $end
$var wire    8  aaadi  regu6 [7:0]  $end
$var wire    8  aaadj  regd6 [7:0]  $end
$var wire    8  aaadk  regu7 [7:0]  $end
$var wire    8  aaadl  regd7 [7:0]  $end
$var wire    8  aaadm  regu8 [7:0]  $end
$var wire    8  aaadn  regd8 [7:0]  $end
$var wire    1  aaado  done       $end
$upscope $end
$enddefinitions  $end

$comment
All initial values are dumped below at time 0 sec = 0 timescale units.
$end

$dumpvars
1aaaaa
1aaaab
b0 aaaac
b0 aaaad
b0 aaaae
b0 aaaaf
b0 aaaag
b0 aaaah
0aaaai
0aaaaj
b0 aaaak
b0 aaaal
b0 aaaam
b0 aaaan
b0 aaaao
b0 aaaap
0aaaaq
0aaaar
b0 aaaas
b0 aaaat
b0 aaaau
b0 aaaav
b0 aaaaw
b0 aaaax
0aaaay
0aaaaz
b0 aaaba
b0 aaabb
b0 aaabc
b0 aaabd
b0 aaabe
b0 aaabf
0aaabg
0aaabh
b0 aaabi
b0 aaabj
b0 aaabk
b0 aaabl
b0 aaabm
b0 aaabn
0aaabo
0aaabp
b0 aaabq
b0 aaabr
b0 aaabs
b0 aaabt
b0 aaabu
b0 aaabv
0aaabw
0aaabx
b0 aaaby
b0 aaabz
b0 aaaca
b0 aaacb
b0 aaacc
b0 aaacd
0aaace
0aaacf
b0 aaacg
b0 aaach
b0 aaaci
b0 aaacj
b0 aaack
b0 aaacl
0aaacm
0aaacn
b0 aaaco
b0 aaacp
b0 aaacq
b0 aaacr
b0 aaacs
b0 aaact
0aaacu
0aaacv
b0 aaacw
b0 aaacx
b0 aaacy
b0 aaacz
b0 aaada
b0 aaadb
b0 aaadc
b0 aaadd
b0 aaade
b0 aaadf
b0 aaadg
b0 aaadh
b0 aaadi
b0 aaadj
b0 aaadk
b0 aaadl
b0 aaadm
b0 aaadn
0aaado
$end

#5000
0aaaaa

#10000
1aaaaa
0aaaab

#15000
0aaaaa

#20000
1aaaaa
b11 aaaac
b11 aaaad

#25000
0aaaaa

#30000
1aaaaa
b100 aaaac
b100 aaaad
b11 aaaba
b11 aaabb

#35000
0aaaaa

#40000
1aaaaa
b1100 aaaac
b1100 aaaad
b1 aaaae
b1 aaaaf
b1 aaaag
b1 aaaah
1aaaai
1aaaaj
b10 aaaak
b10 aaaal
b100 aaaba
b100 aaabb
b1 aaabc
b1 aaabd
b1 aaabe
b1 aaabf
1aaabg
1aaabh
b11 aaaby
b11 aaabz
b1 aaaca
b1 aaacb
b1 aaacc
b11 aaacd
1aaace
1aaacf
b1 aaadi
b11 aaadj

#45000
0aaaaa

#50000
1aaaaa
b0 aaaac
b0 aaaad
b0 aaaae
b0 aaaaf
b0 aaaag
b0 aaaah
0aaaai
0aaaaj
b110 aaaak
b110 aaaal
b1 aaaam
b1 aaaan
b1 aaaao
b1 aaaap
1aaaaq
1aaaar
b1100 aaaba
b1100 aaabb
b0 aaabc
b0 aaabd
b0 aaabe
b0 aaabf
0aaabg
0aaabh
b10 aaabi
b10 aaabj
b1 aaabk
b1 aaabl
b1 aaabm
b10 aaabn
1aaabo
1aaabp
b100 aaaby
b100 aaabz
b0 aaaca
b11111100 aaacb
b0 aaacc
0aaace
0aaacf
b1 aaaci
b1 aaacj
b11 aaack
b11 aaacl
b1 aaade
b10 aaadf

#55000
0aaaaa

#60000
1aaaaa
b0 aaaak
b0 aaaal
b0 aaaam
b0 aaaan
b0 aaaao
b0 aaaap
0aaaaq
0aaaar
b1 aaaas
b1 aaaat
b1 aaaau
b1 aaaav
b1 aaaaw
b1 aaaax
1aaaay
1aaaaz
b0 aaaba
b0 aaabb
b110 aaabi
b110 aaabj
b0 aaabk
b11111010 aaabl
b0 aaabm
0aaabo
0aaabp
b1 aaabs
b1 aaabt
b10 aaabu
b10 aaabv
b1100 aaaby
b1100 aaabz
b11110100 aaacb
b10 aaacg
b10 aaach
b11111100 aaaci
b11111100 aaacj
b110 aaacl
1aaacm
1aaacn
b1 aaacq
b1 aaacr
b11 aaacs
b11 aaact
b1 aaada
b1 aaadb
b11111100 aaadk
b110 aaadl

#65000
0aaaaa

#70000
1aaaaa
b0 aaaas
b0 aaaat
b0 aaaau
b0 aaaav
b0 aaaaw
0aaaay
0aaaaz
b0 aaabi
b0 aaabj
b0 aaabl
b1 aaabq
b1 aaabr
b11111010 aaabs
b11111010 aaabt
1aaabw
1aaabx
b0 aaaby
b0 aaabz
b0 aaacb
b110 aaacg
b110 aaach
b11110100 aaaci
b0 aaacj
b10010 aaacl
0aaacm
0aaacn
b11111100 aaacq
b11111100 aaacr
b110 aaacs
b110 aaact
b11111010 aaadg
b10 aaadh

#75000
0aaaaa

#80000
1aaaaa
b0 aaabq
b0 aaabr
b0 aaabs
b0 aaabt
0aaabw
0aaabx
b0 aaacg
b0 aaach
b0 aaaci
b110 aaacl
b1 aaaco
b1 aaacp
b0 aaacq
b0 aaacr
b10010 aaacs
b10010 aaact
1aaacu
1aaacv
b10010 aaadn

#85000
0aaaaa

#90000
1aaaaa
b0 aaaco
b0 aaacp
b110 aaacs
0aaacu
0aaacv
1aaado

